// Jest Snapshot v1, https://goo.gl/fbAQLP

exports[`<PersonsActions /> should render correctly 1`] = `
<div
  className="borderedContainer"
>
  <ContentWrapper
    className="heading"
  >
    <h1
      className="title"
    >
      People's list
    </h1>
    <div
      className="actionsWrapper"
    >
      <div
        className="inputWrapper"
      >
        <Autosuggest
          alwaysRenderSuggestions={false}
          focusInputOnSuggestionClick={true}
          getSuggestionValue={[Function]}
          highlightFirstSuggestion={true}
          id="1"
          inputProps={
            Object {
              "onChange": [Function],
              "placeholder": "Search for people",
              "value": "",
            }
          }
          multiSection={false}
          onSuggestionSelected={[Function]}
          onSuggestionsClearRequested={[Function]}
          onSuggestionsFetchRequested={[Function]}
          renderSuggestion={[Function]}
          renderSuggestionsContainer={[Function]}
          shouldRenderSuggestions={[Function]}
          suggestions={
            Array [
              Object {
                "assistant": "Mocked Assistant Name",
                "email": "mocked@email.com",
                "groups": "Mocked Groups",
                "id": 100,
                "location": "Mocked Location",
                "name": "Mocked Name",
                "organization": "Mocked Organization",
                "phone": "1234567890",
                "picture": "https://pipedrive-profile-pics.s3.amazonaws.com/2037b0c0150a2831bd969029d73efdd798b13b98_128.jpg",
              },
            ]
          }
          theme={
            Object {
              "input": "input",
              "suggestion": "suggestion",
              "suggestionHighlighted": "suggestionHighlighted",
              "suggestionsContainer": "suggestionsContainer",
              "suggestionsContainerOpen": "suggestionsContainerOpen",
              "suggestionsList": "suggestionsList",
            }
          }
        />
        <span
          className="button searchButton"
        >
          <ReactComponent
            className="icon"
          />
        </span>
      </div>
      <Button
        isLoading={false}
        onClick={[Function]}
        type="button"
        variant="success"
      >
        Add person
      </Button>
    </div>
  </ContentWrapper>
</div>
`;
