// Jest Snapshot v1, https://goo.gl/fbAQLP

exports[`<FormField /> should render correctly 1`] = `
<div
  className="inputContainer"
>
  <label
    className="label"
    htmlFor="form-name"
  >
    label
  </label>
  <input
    className="input"
    id="form-name"
    name="name"
    onBlur={[Function]}
    onChange={[Function]}
    type="text"
  />
</div>
`;

exports[`<FormField /> should render with custom props 1`] = `
<div
  className="inputContainer"
>
  <label
    className="label"
    htmlFor="form-name"
  >
    label
  </label>
  <input
    className="input inputClassName"
    id="id"
    name="name"
    onBlur={[Function]}
    onChange={[Function]}
    type="email"
  />
</div>
`;

exports[`<FormField /> should render with error props 1`] = `
<div
  className="inputContainer"
>
  <label
    className="label"
    htmlFor="form-name"
  >
    label
  </label>
  <input
    aria-describedby="form-name-error"
    aria-invalid={true}
    className="input"
    id="form-name"
    name="name"
    onBlur={[Function]}
    onChange={[Function]}
    type="text"
  />
  <span
    className="error"
    id="form-name-error"
  >
    error message
  </span>
</div>
`;
