// Jest Snapshot v1, https://goo.gl/fbAQLP

exports[`<ModalHeader /> should render correctly 1`] = `
<div
  className="padded header"
>
  <h2
    className="title"
  >
    Title
  </h2>
  <Button
    className="iconButton"
    isLoading={false}
    onClick={[Function]}
    type="button"
  >
    <VisuallyHidden>
      Close
    </VisuallyHidden>
    <ReactComponent
      className="icon"
    />
  </Button>
</div>
`;

exports[`<ModalHeader /> should render correctly with custom props 1`] = `
<div
  className="padded header customClassName"
>
  <h2
    className="title"
  >
    Title
  </h2>
  <Button
    className="iconButton"
    isLoading={false}
    onClick={[Function]}
    type="button"
  >
    <VisuallyHidden>
      Close
    </VisuallyHidden>
    <ReactComponent
      className="icon"
    />
  </Button>
</div>
`;
