// Jest Snapshot v1, https://goo.gl/fbAQLP

exports[`<Modal /> should render correctly 1`] = `
<Modal
  appElement={null}
  ariaHideApp={true}
  bodyOpenClassName="ReactModal__Body--open"
  className="overlayContent"
  closeTimeoutMS={0}
  isOpen={true}
  onRequestClose={[Function]}
  overlayClassName="overlay"
  parentSelector={[Function]}
  portalClassName="ReactModalPortal"
  role="dialog"
  shouldCloseOnEsc={true}
  shouldCloseOnOverlayClick={true}
  shouldFocusAfterRender={true}
  shouldReturnFocusAfterClose={true}
>
  <span>
    Custom text
  </span>
</Modal>
`;

exports[`<Modal /> should render correctly with custom props 1`] = `
<Modal
  appElement={null}
  ariaHideApp={true}
  bodyOpenClassName="ReactModal__Body--open"
  className="overlayContent customClassName"
  closeTimeoutMS={0}
  isOpen={true}
  onRequestClose={[Function]}
  overlayClassName="overlay customOverlayClassName"
  parentSelector={[Function]}
  portalClassName="ReactModalPortal"
  role="dialog"
  shouldCloseOnEsc={true}
  shouldCloseOnOverlayClick={true}
  shouldFocusAfterRender={true}
  shouldReturnFocusAfterClose={true}
>
  <span>
    Custom text
  </span>
</Modal>
`;
